output/pre_synth_sim/pre_synth_sim.vcd
$date
	Wed Oct 25 23:45:25 2023
$end
$version
	Icarus Verilog
$end
$timescale
	1ps
$end
$scope module alphacore_tb $end
$var wire 32 ! reg_read_data_1 [31:0] $end
$var reg 1 " clkread $end
$var reg 1 # fastclk $end
$var reg 1 $ reset $end
$var reg 1 % switch_run $end
$var reg 5 & switch_select [4:0] $end
$var integer 32 ' count [31:0] $end
$scope module uut $end
$var wire 1 ( aluSrc $end
$var wire 1 ) branch_decided $end
$var wire 1 * clknormal $end
$var wire 1 + clkrf $end
$var wire 1 # fastclk $end
$var wire 1 , led_indicator $end
$var wire 1 - multi_purpose_reg_write $end
$var wire 1 $ reset $end
$var wire 1 % switch_run $end
$var wire 5 . switch_select [4:0] $end
$var wire 1 / zero $end
$var wire 32 0 shifted_immidiate [31:0] $end
$var wire 32 1 reg_write_data [31:0] $end
$var wire 5 2 reg_write_addr [4:0] $end
$var wire 1 3 reg_write $end
$var wire 32 4 reg_read_data_2 [31:0] $end
$var wire 32 5 reg_read_data_1 [31:0] $end
$var wire 1 6 reg_dest $end
$var wire 32 7 pc_plus4 [31:0] $end
$var wire 32 8 pc_out_unsign_extended [31:0] $end
$var wire 8 9 pc_out [7:0] $end
$var wire 32 : pc_origin_al [31:0] $end
$var wire 8 ; pc_in [7:0] $end
$var wire 5 < multi_purpose_read_addr [4:0] $end
$var wire 1 = mem_write $end
$var wire 1 > mem_to_reg $end
$var wire 1 ? mem_read $end
$var wire 28 @ jump_base28 [27:0] $end
$var wire 32 A jump_addr [31:0] $end
$var wire 1 B jump $end
$var wire 32 C instruction [31:0] $end
$var wire 32 D extended_immidiate [31:0] $end
$var wire 32 E d_mem_read_data [31:0] $end
$var wire 8 F d_mem_addr [7:0] $end
$var wire 1 G clk $end
$var wire 32 H branch_result [31:0] $end
$var wire 32 I branch_out [31:0] $end
$var wire 1 J branch $end
$var wire 1 K alusrc $end
$var wire 2 L aluop [1:0] $end
$var wire 32 M alu_out [31:0] $end
$var wire 32 N alu_in_b [31:0] $end
$var wire 4 O alu_control_out [3:0] $end
$var reg 1 G clk_reg $end
$var reg 1 P clkrf_reg $end
$var reg 5 Q multi_purpose_read_addr_reg [4:0] $end
$var reg 1 R multi_purpose_reg_write_reg $end
$scope module alucontrol1 $end
$var wire 6 S funct [5:0] $end
$var wire 4 T out_to_alu [3:0] $end
$var wire 2 U aluop [1:0] $end
$upscope $end
$scope module branch_shift1 $end
$var wire 32 V shift_out [31:0] $end
$var wire 32 W shift_in [31:0] $end
$upscope $end
$scope module control1 $end
$var wire 1 K alusrc $end
$var wire 1 J branch $end
$var wire 1 B jump $end
$var wire 1 ? mem_read $end
$var wire 1 > mem_to_reg $end
$var wire 1 = mem_write $end
$var wire 6 X opcode [5:0] $end
$var wire 1 6 reg_dest $end
$var wire 1 3 reg_write $end
$var wire 2 Y aluop [1:0] $end
$upscope $end
$scope module data_memory1 $end
$var wire 8 Z addr [7:0] $end
$var wire 1 G clk $end
$var wire 1 ? mem_read $end
$var wire 1 = mem_write $end
$var wire 1 $ reset $end
$var wire 32 [ write_data [31:0] $end
$var wire 6 \ shifted_addr [5:0] $end
$var wire 32 ] read_data [31:0] $end
$var integer 32 ^ k [31:0] $end
$upscope $end
$scope module instruction_memory1 $end
$var wire 32 _ instruction [31:0] $end
$var wire 7 ` read_addr [6:0] $end
$var wire 1 $ reset $end
$var wire 6 a shifted_read_addr [5:0] $end
$var integer 32 b k [31:0] $end
$upscope $end
$scope module jump_shift1 $end
$var wire 26 c shift_in [25:0] $end
$var wire 28 d shift_out [27:0] $end
$upscope $end
$scope module program_counter1 $end
$var wire 1 G clk $end
$var wire 7 e pc_in [6:0] $end
$var wire 1 $ reset $end
$var reg 7 f pc_out [6:0] $end
$upscope $end
$scope module program_counter10 $end
$var wire 1 6 control $end
$var wire 5 g in0 [4:0] $end
$var wire 5 h in1 [4:0] $end
$var wire 5 i mux_out [4:0] $end
$upscope $end
$scope module program_counter11 $end
$var wire 1 ( control $end
$var wire 32 j mux_out [31:0] $end
$var wire 32 k in1 [31:0] $end
$var wire 32 l in0 [31:0] $end
$upscope $end
$scope module program_counter12 $end
$var wire 1 > control $end
$var wire 32 m in1 [31:0] $end
$var wire 32 n mux_out [31:0] $end
$var wire 32 o in0 [31:0] $end
$upscope $end
$scope module program_counter13 $end
$var wire 1 ) control $end
$var wire 32 p mux_out [31:0] $end
$var wire 32 q in1 [31:0] $end
$var wire 32 r in0 [31:0] $end
$upscope $end
$scope module program_counter14 $end
$var wire 1 B control $end
$var wire 32 s in0 [31:0] $end
$var wire 32 t in1 [31:0] $end
$var wire 32 u mux_out [31:0] $end
$upscope $end
$scope module program_counter15 $end
$var wire 4 v control [3:0] $end
$var wire 32 w in_b [31:0] $end
$var wire 32 x in_a [31:0] $end
$var reg 32 y alu_out [31:0] $end
$var reg 1 / zero $end
$upscope $end
$scope module program_counter16 $end
$var wire 32 z in_a [31:0] $end
$var wire 32 { in_b [31:0] $end
$var wire 32 | add_out [31:0] $end
$upscope $end
$scope module program_counter17 $end
$var wire 32 } in_a [31:0] $end
$var wire 32 ~ in_b [31:0] $end
$var wire 32 !" add_out [31:0] $end
$upscope $end
$scope module register_file1 $end
$var wire 1 + clk $end
$var wire 5 "" read_addr_1 [4:0] $end
$var wire 5 #" read_addr_2 [4:0] $end
$var wire 32 $" read_data_1 [31:0] $end
$var wire 32 %" read_data_2 [31:0] $end
$var wire 1 - reg_write $end
$var wire 1 $ reset $end
$var wire 5 &" write_addr [4:0] $end
$var wire 32 '" write_data [31:0] $end
$var integer 32 (" k [31:0] $end
$upscope $end
$scope module sign_extension1 $end
$var wire 16 )" sign_in [15:0] $end
$var wire 32 *" sign_out [31:0] $end
$upscope $end
$upscope $end
$upscope $end
$enddefinitions $end
#0
$dumpvars
b100000 *"
b100000 )"
b100000 ("
bx '"
b1000 &"
b0 %"
b0 $"
b1000 #"
b0 ""
b10000100 !"
b10000000 ~
b100 }
b100 |
b100 {
b0 z
bx y
b0 x
b0x00000 w
b10 v
b100 u
b1000000000000010000000 t
b100 s
b100 r
b10000100 q
b100 p
bx o
bx n
bx m
b0 l
b100000 k
b0x00000 j
b1000 i
b0 h
b1000 g
b0 f
b100 e
b1000000000000010000000 d
b10000000000000100000 c
b100000 b
b0 a
b0 `
b100000000010000000000000100000 _
b1000000 ^
bx ]
bx \
b0 [
bx Z
b0 Y
b1000 X
b100000 W
b10000000 V
b0 U
b10 T
b100000 S
0R
b0 Q
xP
b10 O
b0x00000 N
bx M
b0 L
1K
0J
b10000100 I
b100 H
0G
bx F
bx E
b100000 D
b100000000010000000000000100000 C
0B
b1000000000000010000000 A
b1000000000000010000000 @
0?
0>
0=
b0 <
b100 ;
b100 :
b0 9
b0 8
b100 7
06
b0 5
b0 4
13
b1000 2
bx 1
b10000000 0
0/
b0 .
0-
0,
x+
z*
0)
z(
b0 '
b0 &
0%
1$
0#
0"
b0 !
$end
#1000
1#
#2000
0#
#3000
1#
#4000
0#
0$
#5000
1#
#6000
0#
#7000
1#
#8000
0#
#9000
1#
#10000
0#
#11000
1#
#12000
0#
#13000
1#
#14000
0#
#15000
1#
#16000
0#
#17000
1#
#18000
0#
#19000
1#
#20000
0#
#21000
1#
#22000
0#
#23000
1#
#24000
0#
#25000
1#
#26000
0#
#27000
1#
#28000
0#
#29000
1#
#30000
0#
#31000
1#
#32000
0#
#33000
1#
#34000
0#
#35000
1#
#36000
0#
#37000
1#
#38000
0#
#39000
1#
#40000
0#
#41000
1#
#42000
0#
#43000
1#
#44000
0#
#45000
1#
#46000
0#
#47000
1#
#48000
0#
#49000
1#
#50000
0#
#51000
1#
#52000
0#
#53000
1#
#54000
0#
#55000
1#
#56000
0#
#57000
1#
#58000
0#
#59000
1#
#60000
0#
#61000
1#
#62000
0#
#63000
1#
#64000
0#
#65000
1#
#66000
0#
#67000
1#
#68000
0#
#69000
1#
#70000
0#
#71000
1#
#72000
0#
#73000
1#
#74000
0#
#75000
1#
#76000
0#
#77000
1#
#78000
0#
#79000
1#
#80000
0#
#81000
1#
#82000
0#
#83000
1#
#84000
0#
#85000
1#
#86000
0#
#87000
1#
#88000
0#
#89000
1#
#90000
0#
#91000
1#
#92000
0#
#93000
1#
#94000
0#
#95000
1#
#96000
0#
#97000
1#
#98000
0#
#99000
1#
#100000
0#
#101000
1#
#102000
0#
#103000
1#
#104000
0#
#105000
1#
#106000
0#
#107000
1#
#108000
0#
#109000
1#
#110000
0#
#111000
1#
#112000
0#
#113000
1#
#114000
0#
#115000
1#
#116000
0#
#117000
1#
#118000
0#
#119000
1#
#120000
0#
#121000
1#
#122000
0#
#123000
1#
#124000
0#
#125000
1#
#126000
0#
#127000
1#
#128000
0#
#129000
1#
#130000
0#
#131000
1#
#132000
0#
#133000
1#
#134000
0#
#135000
1#
#136000
0#
#137000
1#
#138000
0#
#139000
1#
#140000
0#
#141000
1#
#142000
0#
#143000
1#
#144000
0#
#145000
1#
#146000
0#
#147000
1#
#148000
0#
#149000
1#
#150000
0#
#151000
1#
#152000
0#
#153000
1#
#154000
0#
#155000
1#
#156000
0#
#157000
1#
#158000
0#
#159000
1#
#160000
0#
#161000
1#
#162000
0#
#163000
1#
#164000
0#
#165000
1#
#166000
0#
#167000
1#
#168000
0#
#169000
1#
#170000
0#
#171000
1#
#172000
0#
#173000
1#
#174000
0#
#175000
1#
#176000
0#
#177000
1#
#178000
0#
#179000
1#
#180000
0#
#181000
1#
#182000
0#
#183000
1#
#184000
0#
#185000
1#
#186000
0#
#187000
1#
#188000
0#
#189000
1#
#190000
0#
#191000
1#
#192000
0#
#193000
1#
#194000
0#
#195000
1#
#196000
0#
#197000
1#
#198000
0#
#199000
1#
#200000
0#
1"
#201000
1#
#202000
0#
#203000
1#
#204000
0#
#205000
1#
#206000
0#
#207000
1#
#208000
0#
#209000
1#
#210000
0#
b10000 &
b10000 .
#211000
1#
#212000
0#
#213000
1#
#214000
0#
#215000
1#
#216000
0#
#217000
1#
#218000
0#
#219000
1#
#220000
0#
b10001 &
b10001 .
#221000
1#
#222000
0#
#223000
1#
#224000
0#
#225000
1#
#226000
0#
#227000
1#
#228000
0#
#229000
1#
#230000
0#
b10010 &
b10010 .
#231000
1#
#232000
0#
#233000
1#
#234000
0#
#235000
1#
#236000
0#
#237000
1#
#238000
0#
#239000
1#
#240000
0#
b10011 &
b10011 .
#241000
1#
#242000
0#
#243000
1#
#244000
0#
#245000
1#
#246000
0#
#247000
1#
#248000
0#
#249000
1#
#250000
0#
b10100 &
b10100 .
#251000
1#
#252000
0#
#253000
1#
#254000
0#
#255000
1#
#256000
0#
#257000
1#
#258000
0#
#259000
1#
#260000
0#
b10101 &
b10101 .
#261000
1#
#262000
0#
#263000
1#
#264000
0#
#265000
1#
#266000
0#
#267000
1#
#268000
0#
#269000
1#
#270000
0#
b10110 &
b10110 .
#271000
1#
#272000
0#
#273000
1#
#274000
0#
#275000
1#
#276000
0#
#277000
1#
#278000
0#
#279000
1#
#280000
0#
b10111 &
b10111 .
#281000
1#
#282000
0#
#283000
1#
#284000
0#
#285000
1#
#286000
0#
#287000
1#
#288000
0#
#289000
1#
#290000
0#
b1000 &
b1000 .
#291000
1#
#292000
0#
#293000
1#
#294000
0#
#295000
1#
#296000
0#
#297000
1#
#298000
0#
#299000
1#
#300000
0#
b1001 &
b1001 .
#301000
1#
#302000
0#
#303000
1#
#304000
0#
#305000
1#
#306000
0#
#307000
1#
#308000
0#
#309000
1#
#310000
0#
b1010 &
b1010 .
#311000
1#
#312000
0#
#313000
1#
#314000
0#
#315000
1#
#316000
0#
#317000
1#
#318000
0#
#319000
1#
#320000
0#
b1011 &
b1011 .
#321000
1#
#322000
0#
#323000
1#
#324000
0#
#325000
1#
#326000
0#
#327000
1#
#328000
0#
#329000
1#
#330000
0#
b1100 &
b1100 .
#331000
1#
#332000
0#
#333000
1#
#334000
0#
#335000
1#
#336000
0#
#337000
1#
#338000
0#
#339000
1#
#340000
0#
b1101 &
b1101 .
#341000
1#
#342000
0#
#343000
1#
#344000
0#
#345000
1#
#346000
0#
#347000
1#
#348000
0#
#349000
1#
#350000
0#
b1110 &
b1110 .
#351000
1#
#352000
0#
#353000
1#
#354000
0#
#355000
1#
#356000
0#
#357000
1#
#358000
0#
#359000
1#
#360000
0#
b1111 &
b1111 .
#361000
1#
#362000
0#
#363000
1#
#364000
0#
#365000
1#
#366000
0#
#367000
1#
#368000
0#
#369000
1#
#370000
0#
b11000 &
b11000 .
#371000
1#
#372000
0#
#373000
1#
#374000
0#
#375000
1#
#376000
0#
#377000
1#
#378000
0#
#379000
1#
#380000
0#
b11001 &
b11001 .
#381000
1#
#382000
b1000 e
b1001 2
b1001 i
b1001 &"
b0xx0xxx N
b0xx0xxx j
b0xx0xxx w
b11011100 0
b11011100 V
b11011100 ~
b1000 ;
b1001 g
b1001000000000011011100 A
b1001000000000011011100 t
b1001000000000011011100 @
b1001000000000011011100 d
b10010000000000110111 c
b110111 D
b110111 W
b110111 k
b110111 *"
b110111 )"
b110111 S
b1001 #"
b1000 :
b1000 u
b100000000010010000000000110111 C
b100000000010010000000000110111 _
b1 a
b1000 H
b1000 p
b1000 s
b100 `
b11100100 I
b11100100 q
b11100100 !"
b1000 7
b1000 r
b1000 |
b1000 }
b100 8
b100 z
b100 9
b100 f
1-
1R
z,
zG
z+
zP
0#
1%
#383000
1#
#384000
0#
#385000
1#
#386000
0#
#387000
1#
#388000
0#
#389000
1#
#390000
0#
#391000
1#
#392000
0#
#393000
1#
#394000
0#
#395000
1#
#396000
0#
#397000
1#
#398000
0#
#399000
1#
#400000
0#
0"
#401000
1#
#402000
0#
#403000
1#
#404000
0#
#405000
1#
#406000
0#
#407000
1#
#408000
0#
#409000
1#
#410000
0#
#411000
1#
#412000
0#
#413000
1#
#414000
0-
0R
b11001 <
b11001 Q
b11001 ""
0,
0G
0#
b1 '
0%
