output/pre_synth_sim/pre_synth_sim.vcd
$date
	Tue Oct 24 20:58:02 2023
$end
$version
	Icarus Verilog
$end
$timescale
	1ps
$end
$scope module alphasoc_tb $end
$var reg 1 ! ENb_CP $end
$var reg 1 " ENb_VCO $end
$var reg 1 # REF $end
$var reg 1 $ VCO_IN $end
$var reg 1 % reset $end
$var real 1 & VREFH $end
$var real 1 ' VREFL $end
$var real 1 ( OUT $end
$scope module uut $end
$var wire 1 ! ENb_CP $end
$var wire 1 " ENb_VCO $end
$var wire 1 # REF $end
$var wire 1 $ VCO_IN $end
$var wire 1 ) VREFH $end
$var wire 1 % reset $end
$var wire 10 * RV_TO_DAC [9:0] $end
$var wire 1 + OUT $end
$var wire 1 , CLK $end
$scope module core $end
$var wire 1 - CPU_dmem_rd_en_a4 $end
$var wire 1 . CPU_dmem_wr_en_a4 $end
$var wire 1 / CPU_funct3_valid_a1 $end
$var wire 1 0 CPU_funct7_valid_a1 $end
$var wire 32 1 CPU_instr_a1 [31:0] $end
$var wire 1 2 CPU_is_i_instr_a1 $end
$var wire 1 3 CPU_is_jump_a3 $end
$var wire 1 4 CPU_is_r_instr_a1 $end
$var wire 32 5 CPU_ld_data_a5 [31:0] $end
$var wire 1 6 CPU_rd_valid_a1 $end
$var wire 1 7 CPU_reset_a0 $end
$var wire 32 8 CPU_rf_rd_data1_a2 [31:0] $end
$var wire 32 9 CPU_rf_rd_data2_a2 [31:0] $end
$var wire 1 : CPU_rf_rd_en1_a2 $end
$var wire 1 ; CPU_rf_rd_en2_a2 $end
$var wire 1 < CPU_rf_wr_en_a3 $end
$var wire 1 = CPU_rs1_valid_a1 $end
$var wire 1 > CPU_rs2_valid_a1 $end
$var wire 1 ? CPU_valid_jump_a3 $end
$var wire 1 @ CPU_valid_load_a3 $end
$var wire 1 A CPU_valid_taken_branch_a3 $end
$var wire 1 B clk $end
$var wire 1 % reset $end
$var wire 32 C w_CPU_dmem_rd_data_a4 [31:0] $end
$var wire 5 D w_CPU_rs2_a1 [4:0] $end
$var wire 5 E w_CPU_rs1_a1 [4:0] $end
$var wire 7 F w_CPU_funct7_a1 [6:0] $end
$var wire 3 G w_CPU_funct3_a1 [2:0] $end
$var wire 1 H passed $end
$var wire 1 I clkP_CPU_rs2_valid_a2 $end
$var wire 1 J clkP_CPU_rs1_valid_a2 $end
$var wire 1 K clkP_CPU_rd_valid_a5 $end
$var wire 1 L clkP_CPU_rd_valid_a4 $end
$var wire 1 M clkP_CPU_rd_valid_a3 $end
$var wire 1 N clkP_CPU_rd_valid_a2 $end
$var wire 1 O clkP_CPU_funct7_valid_a2 $end
$var wire 1 P clkP_CPU_funct3_valid_a2 $end
$var wire 1 Q clkP_CPU_dmem_rd_en_a5 $end
$var wire 1 R CPU_valid_a3 $end
$var wire 1 S CPU_taken_branch_a3 $end
$var wire 32 T CPU_src2_value_a2 [31:0] $end
$var wire 32 U CPU_src1_value_a2 [31:0] $end
$var wire 32 V CPU_sltu_rslt_a3 [31:0] $end
$var wire 32 W CPU_sltiu_rslt_a3 [31:0] $end
$var wire 5 X CPU_rf_wr_index_a3 [4:0] $end
$var wire 32 Y CPU_rf_wr_data_a3 [31:0] $end
$var wire 5 Z CPU_rf_rd_index2_a2 [4:0] $end
$var wire 5 [ CPU_rf_rd_index1_a2 [4:0] $end
$var wire 32 \ CPU_result_a3 [31:0] $end
$var wire 5 ] CPU_rd_a1 [4:0] $end
$var wire 32 ^ CPU_pc_a0 [31:0] $end
$var wire 7 _ CPU_opcode_a1 [6:0] $end
$var wire 32 ` CPU_jalr_target_pc_a2 [31:0] $end
$var wire 1 a CPU_is_xori_a2 $end
$var wire 1 b CPU_is_xor_a2 $end
$var wire 1 c CPU_is_u_instr_a1 $end
$var wire 1 d CPU_is_sw_a2 $end
$var wire 1 e CPU_is_sub_a2 $end
$var wire 1 f CPU_is_srli_a2 $end
$var wire 1 g CPU_is_srl_a2 $end
$var wire 1 h CPU_is_srai_a2 $end
$var wire 1 i CPU_is_sra_a2 $end
$var wire 1 j CPU_is_sltu_a2 $end
$var wire 1 k CPU_is_sltiu_a2 $end
$var wire 1 l CPU_is_slti_a2 $end
$var wire 1 m CPU_is_slt_a2 $end
$var wire 1 n CPU_is_slli_a2 $end
$var wire 1 o CPU_is_sll_a2 $end
$var wire 1 p CPU_is_sh_a2 $end
$var wire 1 q CPU_is_sb_a2 $end
$var wire 1 r CPU_is_s_instr_a1 $end
$var wire 1 s CPU_is_ori_a2 $end
$var wire 1 t CPU_is_or_a2 $end
$var wire 1 u CPU_is_lui_a2 $end
$var wire 1 v CPU_is_load_a2 $end
$var wire 1 w CPU_is_jalr_a2 $end
$var wire 1 x CPU_is_jal_a2 $end
$var wire 1 y CPU_is_j_instr_a1 $end
$var wire 1 z CPU_is_bne_a2 $end
$var wire 1 { CPU_is_bltu_a2 $end
$var wire 1 | CPU_is_blt_a2 $end
$var wire 1 } CPU_is_bgeu_a2 $end
$var wire 1 ~ CPU_is_bge_a2 $end
$var wire 1 !" CPU_is_beq_a2 $end
$var wire 1 "" CPU_is_b_instr_a1 $end
$var wire 1 #" CPU_is_auipc_a2 $end
$var wire 1 $" CPU_is_andi_a2 $end
$var wire 1 %" CPU_is_and_a2 $end
$var wire 1 &" CPU_is_addi_a2 $end
$var wire 1 '" CPU_is_add_a2 $end
$var wire 32 (" CPU_inc_pc_a1 [31:0] $end
$var wire 32 )" CPU_imm_a1 [31:0] $end
$var wire 1 *" CPU_imem_rd_en_a1 $end
$var wire 32 +" CPU_imem_rd_data_a1 [31:0] $end
$var wire 5 ," CPU_imem_rd_addr_a1 [4:0] $end
$var wire 32 -" CPU_dmem_wr_data_a4 [31:0] $end
$var wire 4 ." CPU_dmem_addr_a4 [3:0] $end
$var wire 11 /" CPU_dec_bits_a2 [10:0] $end
$var wire 32 0" CPU_br_target_pc_a2 [31:0] $end
$var wire 1 , CLK $end
$var reg 32 1" CPU_br_target_pc_a3 [31:0] $end
$var reg 32 2" CPU_dmem_rd_data_a5 [31:0] $end
$var reg 3 3" CPU_funct3_a2 [2:0] $end
$var reg 1 4" CPU_funct7_a2 [5:5] $end
$var reg 32 5" CPU_imm_a2 [31:0] $end
$var reg 32 6" CPU_imm_a3 [31:0] $end
$var reg 32 7" CPU_inc_pc_a2 [31:0] $end
$var reg 32 8" CPU_inc_pc_a3 [31:0] $end
$var reg 1 9" CPU_is_add_a3 $end
$var reg 1 :" CPU_is_addi_a3 $end
$var reg 1 ;" CPU_is_and_a3 $end
$var reg 1 <" CPU_is_andi_a3 $end
$var reg 1 =" CPU_is_auipc_a3 $end
$var reg 1 >" CPU_is_beq_a3 $end
$var reg 1 ?" CPU_is_bge_a3 $end
$var reg 1 @" CPU_is_bgeu_a3 $end
$var reg 1 A" CPU_is_blt_a3 $end
$var reg 1 B" CPU_is_bltu_a3 $end
$var reg 1 C" CPU_is_bne_a3 $end
$var reg 1 D" CPU_is_jal_a3 $end
$var reg 1 E" CPU_is_jalr_a3 $end
$var reg 1 F" CPU_is_load_a3 $end
$var reg 1 G" CPU_is_load_a4 $end
$var reg 1 H" CPU_is_lui_a3 $end
$var reg 1 I" CPU_is_or_a3 $end
$var reg 1 J" CPU_is_ori_a3 $end
$var reg 1 K" CPU_is_s_instr_a2 $end
$var reg 1 L" CPU_is_s_instr_a3 $end
$var reg 1 M" CPU_is_s_instr_a4 $end
$var reg 1 N" CPU_is_sll_a3 $end
$var reg 1 O" CPU_is_slli_a3 $end
$var reg 1 P" CPU_is_slt_a3 $end
$var reg 1 Q" CPU_is_slti_a3 $end
$var reg 1 R" CPU_is_sltiu_a3 $end
$var reg 1 S" CPU_is_sltu_a3 $end
$var reg 1 T" CPU_is_sra_a3 $end
$var reg 1 U" CPU_is_srai_a3 $end
$var reg 1 V" CPU_is_srl_a3 $end
$var reg 1 W" CPU_is_srli_a3 $end
$var reg 1 X" CPU_is_sub_a3 $end
$var reg 1 Y" CPU_is_xor_a3 $end
$var reg 1 Z" CPU_is_xori_a3 $end
$var reg 32 [" CPU_jalr_target_pc_a3 [31:0] $end
$var reg 7 \" CPU_opcode_a2 [6:0] $end
$var reg 32 ]" CPU_pc_a1 [31:0] $end
$var reg 32 ^" CPU_pc_a2 [31:0] $end
$var reg 32 _" CPU_pc_a3 [31:0] $end
$var reg 5 `" CPU_rd_a2 [4:0] $end
$var reg 5 a" CPU_rd_a3 [4:0] $end
$var reg 5 b" CPU_rd_a4 [4:0] $end
$var reg 5 c" CPU_rd_a5 [4:0] $end
$var reg 1 d" CPU_rd_valid_a2 $end
$var reg 1 e" CPU_rd_valid_a3 $end
$var reg 1 f" CPU_rd_valid_a4 $end
$var reg 1 g" CPU_reset_a1 $end
$var reg 1 h" CPU_reset_a2 $end
$var reg 1 i" CPU_reset_a3 $end
$var reg 1 j" CPU_reset_a4 $end
$var reg 4 k" CPU_result_a4 [5:2] $end
$var reg 5 l" CPU_rs1_a2 [4:0] $end
$var reg 1 m" CPU_rs1_valid_a2 $end
$var reg 5 n" CPU_rs2_a2 [4:0] $end
$var reg 1 o" CPU_rs2_valid_a2 $end
$var reg 32 p" CPU_src1_value_a3 [31:0] $end
$var reg 32 q" CPU_src2_value_a3 [31:0] $end
$var reg 32 r" CPU_src2_value_a4 [31:0] $end
$var reg 1 s" CPU_valid_a4 $end
$var reg 1 t" CPU_valid_jump_a4 $end
$var reg 1 u" CPU_valid_jump_a5 $end
$var reg 1 v" CPU_valid_load_a4 $end
$var reg 1 w" CPU_valid_load_a5 $end
$var reg 1 x" CPU_valid_taken_branch_a4 $end
$var reg 1 y" CPU_valid_taken_branch_a5 $end
$var reg 10 z" OUT [9:0] $end
$scope begin L1_CPU_Dmem[0] $end
$var wire 1 {" L1_wr_a4 $end
$upscope $end
$scope begin L1_CPU_Dmem[1] $end
$var wire 1 |" L1_wr_a4 $end
$upscope $end
$scope begin L1_CPU_Dmem[2] $end
$var wire 1 }" L1_wr_a4 $end
$upscope $end
$scope begin L1_CPU_Dmem[3] $end
$var wire 1 ~" L1_wr_a4 $end
$upscope $end
$scope begin L1_CPU_Dmem[4] $end
$var wire 1 !# L1_wr_a4 $end
$upscope $end
$scope begin L1_CPU_Dmem[5] $end
$var wire 1 "# L1_wr_a4 $end
$upscope $end
$scope begin L1_CPU_Dmem[6] $end
$var wire 1 ## L1_wr_a4 $end
$upscope $end
$scope begin L1_CPU_Dmem[7] $end
$var wire 1 $# L1_wr_a4 $end
$upscope $end
$scope begin L1_CPU_Dmem[8] $end
$var wire 1 %# L1_wr_a4 $end
$upscope $end
$scope begin L1_CPU_Dmem[9] $end
$var wire 1 &# L1_wr_a4 $end
$upscope $end
$scope begin L1_CPU_Dmem[10] $end
$var wire 1 '# L1_wr_a4 $end
$upscope $end
$scope begin L1_CPU_Dmem[11] $end
$var wire 1 (# L1_wr_a4 $end
$upscope $end
$scope begin L1_CPU_Dmem[12] $end
$var wire 1 )# L1_wr_a4 $end
$upscope $end
$scope begin L1_CPU_Dmem[13] $end
$var wire 1 *# L1_wr_a4 $end
$upscope $end
$scope begin L1_CPU_Dmem[14] $end
$var wire 1 +# L1_wr_a4 $end
$upscope $end
$scope begin L1_CPU_Dmem[15] $end
$var wire 1 ,# L1_wr_a4 $end
$upscope $end
$scope begin L1_CPU_Imem[0] $end
$upscope $end
$scope begin L1_CPU_Imem[1] $end
$upscope $end
$scope begin L1_CPU_Imem[2] $end
$upscope $end
$scope begin L1_CPU_Imem[3] $end
$upscope $end
$scope begin L1_CPU_Imem[4] $end
$upscope $end
$scope begin L1_CPU_Imem[5] $end
$upscope $end
$scope begin L1_CPU_Imem[6] $end
$upscope $end
$scope begin L1_CPU_Imem[7] $end
$upscope $end
$scope begin L1_CPU_Imem[8] $end
$upscope $end
$scope begin L1_CPU_Imem[9] $end
$upscope $end
$scope begin L1_CPU_Imem[10] $end
$upscope $end
$scope begin L1_CPU_Imem[11] $end
$upscope $end
$scope begin L1_CPU_Imem[12] $end
$upscope $end
$scope begin L1_CPU_Imem[13] $end
$upscope $end
$scope begin L1_CPU_Imem[14] $end
$upscope $end
$scope begin L1_CPU_Imem[15] $end
$upscope $end
$scope begin L1_CPU_Imem[16] $end
$upscope $end
$scope begin L1_CPU_Imem[17] $end
$upscope $end
$scope begin L1_CPU_Imem[18] $end
$upscope $end
$scope begin L1_CPU_Xreg[0] $end
$var wire 1 -# L1_wr_a3 $end
$upscope $end
$scope begin L1_CPU_Xreg[1] $end
$var wire 1 .# L1_wr_a3 $end
$upscope $end
$scope begin L1_CPU_Xreg[2] $end
$var wire 1 /# L1_wr_a3 $end
$upscope $end
$scope begin L1_CPU_Xreg[3] $end
$var wire 1 0# L1_wr_a3 $end
$upscope $end
$scope begin L1_CPU_Xreg[4] $end
$var wire 1 1# L1_wr_a3 $end
$upscope $end
$scope begin L1_CPU_Xreg[5] $end
$var wire 1 2# L1_wr_a3 $end
$upscope $end
$scope begin L1_CPU_Xreg[6] $end
$var wire 1 3# L1_wr_a3 $end
$upscope $end
$scope begin L1_CPU_Xreg[7] $end
$var wire 1 4# L1_wr_a3 $end
$upscope $end
$scope begin L1_CPU_Xreg[8] $end
$var wire 1 5# L1_wr_a3 $end
$upscope $end
$scope begin L1_CPU_Xreg[9] $end
$var wire 1 6# L1_wr_a3 $end
$upscope $end
$scope begin L1_CPU_Xreg[10] $end
$var wire 1 7# L1_wr_a3 $end
$upscope $end
$scope begin L1_CPU_Xreg[11] $end
$var wire 1 8# L1_wr_a3 $end
$upscope $end
$scope begin L1_CPU_Xreg[12] $end
$var wire 1 9# L1_wr_a3 $end
$upscope $end
$scope begin L1_CPU_Xreg[13] $end
$var wire 1 :# L1_wr_a3 $end
$upscope $end
$scope begin L1_CPU_Xreg[14] $end
$var wire 1 ;# L1_wr_a3 $end
$upscope $end
$scope begin L1_CPU_Xreg[15] $end
$var wire 1 <# L1_wr_a3 $end
$upscope $end
$scope begin L1_CPU_Xreg[16] $end
$var wire 1 =# L1_wr_a3 $end
$upscope $end
$scope begin L1_CPU_Xreg[17] $end
$var wire 1 ># L1_wr_a3 $end
$upscope $end
$scope begin L1_CPU_Xreg[18] $end
$var wire 1 ?# L1_wr_a3 $end
$upscope $end
$scope begin L1_CPU_Xreg[19] $end
$var wire 1 @# L1_wr_a3 $end
$upscope $end
$scope begin L1_CPU_Xreg[20] $end
$var wire 1 A# L1_wr_a3 $end
$upscope $end
$scope begin L1_CPU_Xreg[21] $end
$var wire 1 B# L1_wr_a3 $end
$upscope $end
$scope begin L1_CPU_Xreg[22] $end
$var wire 1 C# L1_wr_a3 $end
$upscope $end
$scope begin L1_CPU_Xreg[23] $end
$var wire 1 D# L1_wr_a3 $end
$upscope $end
$scope begin L1_CPU_Xreg[24] $end
$var wire 1 E# L1_wr_a3 $end
$upscope $end
$scope begin L1_CPU_Xreg[25] $end
$var wire 1 F# L1_wr_a3 $end
$upscope $end
$scope begin L1_CPU_Xreg[26] $end
$var wire 1 G# L1_wr_a3 $end
$upscope $end
$scope begin L1_CPU_Xreg[27] $end
$var wire 1 H# L1_wr_a3 $end
$upscope $end
$scope begin L1_CPU_Xreg[28] $end
$var wire 1 I# L1_wr_a3 $end
$upscope $end
$scope begin L1_CPU_Xreg[29] $end
$var wire 1 J# L1_wr_a3 $end
$upscope $end
$scope begin L1_CPU_Xreg[30] $end
$var wire 1 K# L1_wr_a3 $end
$upscope $end
$scope begin L1_CPU_Xreg[31] $end
$var wire 1 L# L1_wr_a3 $end
$upscope $end
$scope begin L1gen_CPU_Dmem[0] $end
$upscope $end
$scope begin L1gen_CPU_Dmem[1] $end
$upscope $end
$scope begin L1gen_CPU_Dmem[2] $end
$upscope $end
$scope begin L1gen_CPU_Dmem[3] $end
$upscope $end
$scope begin L1gen_CPU_Dmem[4] $end
$upscope $end
$scope begin L1gen_CPU_Dmem[5] $end
$upscope $end
$scope begin L1gen_CPU_Dmem[6] $end
$upscope $end
$scope begin L1gen_CPU_Dmem[7] $end
$upscope $end
$scope begin L1gen_CPU_Dmem[8] $end
$upscope $end
$scope begin L1gen_CPU_Dmem[9] $end
$upscope $end
$scope begin L1gen_CPU_Dmem[10] $end
$upscope $end
$scope begin L1gen_CPU_Dmem[11] $end
$upscope $end
$scope begin L1gen_CPU_Dmem[12] $end
$upscope $end
$scope begin L1gen_CPU_Dmem[13] $end
$upscope $end
$scope begin L1gen_CPU_Dmem[14] $end
$upscope $end
$scope begin L1gen_CPU_Dmem[15] $end
$upscope $end
$scope begin L1gen_CPU_Xreg[0] $end
$upscope $end
$scope begin L1gen_CPU_Xreg[1] $end
$upscope $end
$scope begin L1gen_CPU_Xreg[2] $end
$upscope $end
$scope begin L1gen_CPU_Xreg[3] $end
$upscope $end
$scope begin L1gen_CPU_Xreg[4] $end
$upscope $end
$scope begin L1gen_CPU_Xreg[5] $end
$upscope $end
$scope begin L1gen_CPU_Xreg[6] $end
$upscope $end
$scope begin L1gen_CPU_Xreg[7] $end
$upscope $end
$scope begin L1gen_CPU_Xreg[8] $end
$upscope $end
$scope begin L1gen_CPU_Xreg[9] $end
$upscope $end
$scope begin L1gen_CPU_Xreg[10] $end
$upscope $end
$scope begin L1gen_CPU_Xreg[11] $end
$upscope $end
$scope begin L1gen_CPU_Xreg[12] $end
$upscope $end
$scope begin L1gen_CPU_Xreg[13] $end
$upscope $end
$scope begin L1gen_CPU_Xreg[14] $end
$upscope $end
$scope begin L1gen_CPU_Xreg[15] $end
$upscope $end
$scope begin L1gen_CPU_Xreg[16] $end
$upscope $end
$scope begin L1gen_CPU_Xreg[17] $end
$upscope $end
$scope begin L1gen_CPU_Xreg[18] $end
$upscope $end
$scope begin L1gen_CPU_Xreg[19] $end
$upscope $end
$scope begin L1gen_CPU_Xreg[20] $end
$upscope $end
$scope begin L1gen_CPU_Xreg[21] $end
$upscope $end
$scope begin L1gen_CPU_Xreg[22] $end
$upscope $end
$scope begin L1gen_CPU_Xreg[23] $end
$upscope $end
$scope begin L1gen_CPU_Xreg[24] $end
$upscope $end
$scope begin L1gen_CPU_Xreg[25] $end
$upscope $end
$scope begin L1gen_CPU_Xreg[26] $end
$upscope $end
$scope begin L1gen_CPU_Xreg[27] $end
$upscope $end
$scope begin L1gen_CPU_Xreg[28] $end
$upscope $end
$scope begin L1gen_CPU_Xreg[29] $end
$upscope $end
$scope begin L1gen_CPU_Xreg[30] $end
$upscope $end
$scope begin L1gen_CPU_Xreg[31] $end
$upscope $end
$scope module gen_clkP_CPU_dmem_rd_en_a5 $end
$var wire 1 B free_clk $end
$var wire 1 M# func_en $end
$var wire 1 Q gated_clk $end
$var wire 1 N# gating_override $end
$var wire 1 - pwr_en $end
$upscope $end
$scope module gen_clkP_CPU_funct3_valid_a2 $end
$var wire 1 B free_clk $end
$var wire 1 O# func_en $end
$var wire 1 P gated_clk $end
$var wire 1 P# gating_override $end
$var wire 1 / pwr_en $end
$upscope $end
$scope module gen_clkP_CPU_funct7_valid_a2 $end
$var wire 1 B free_clk $end
$var wire 1 Q# func_en $end
$var wire 1 O gated_clk $end
$var wire 1 R# gating_override $end
$var wire 1 0 pwr_en $end
$upscope $end
$scope module gen_clkP_CPU_rd_valid_a2 $end
$var wire 1 B free_clk $end
$var wire 1 S# func_en $end
$var wire 1 N gated_clk $end
$var wire 1 T# gating_override $end
$var wire 1 6 pwr_en $end
$upscope $end
$scope module gen_clkP_CPU_rd_valid_a3 $end
$var wire 1 B free_clk $end
$var wire 1 U# func_en $end
$var wire 1 M gated_clk $end
$var wire 1 V# gating_override $end
$var wire 1 d" pwr_en $end
$upscope $end
$scope module gen_clkP_CPU_rd_valid_a4 $end
$var wire 1 B free_clk $end
$var wire 1 W# func_en $end
$var wire 1 L gated_clk $end
$var wire 1 X# gating_override $end
$var wire 1 e" pwr_en $end
$upscope $end
$scope module gen_clkP_CPU_rd_valid_a5 $end
$var wire 1 B free_clk $end
$var wire 1 Y# func_en $end
$var wire 1 K gated_clk $end
$var wire 1 Z# gating_override $end
$var wire 1 f" pwr_en $end
$upscope $end
$scope module gen_clkP_CPU_rs1_valid_a2 $end
$var wire 1 B free_clk $end
$var wire 1 [# func_en $end
$var wire 1 J gated_clk $end
$var wire 1 \# gating_override $end
$var wire 1 = pwr_en $end
$upscope $end
$scope module gen_clkP_CPU_rs2_valid_a2 $end
$var wire 1 B free_clk $end
$var wire 1 ]# func_en $end
$var wire 1 I gated_clk $end
$var wire 1 ^# gating_override $end
$var wire 1 > pwr_en $end
$upscope $end
$upscope $end
$scope module dac $end
$var wire 10 _# D [9:0] $end
$var wire 1 `# EN $end
$var wire 11 a# Dext [10:0] $end
$var real 1 b# NaN $end
$var real 1 c# OUT $end
$var real 1 d# VREFH $end
$var real 1 e# VREFL $end
$upscope $end
$scope module pll $end
$var wire 1 ! ENb_CP $end
$var wire 1 " ENb_VCO $end
$var wire 1 # REF $end
$var wire 1 $ VCO_IN $end
$var reg 1 , CLK $end
$var real 1 f# lastedge $end
$var real 1 g# period $end
$var real 1 h# refpd $end
$upscope $end
$upscope $end
$upscope $end
$enddefinitions $end
#0
$dumpvars
r0 h#
r25 g#
r0 f#
r0 e#
r1 d#
r0 c#
rnan b#
b0xxxxxxxxxx a#
1`#
bx _#
0^#
1]#
0\#
1[#
0Z#
1Y#
0X#
1W#
0V#
1U#
0T#
1S#
0R#
1Q#
0P#
1O#
0N#
1M#
xL#
xK#
xJ#
xI#
xH#
xG#
xF#
xE#
xD#
xC#
xB#
xA#
x@#
x?#
x>#
x=#
x<#
x;#
x:#
x9#
x8#
x7#
x6#
x5#
x4#
x3#
x2#
x1#
x0#
x/#
x.#
x-#
x,#
x+#
x*#
x)#
x(#
x'#
x&#
x%#
x$#
x##
x"#
x!#
x~"
x}"
x|"
x{"
bx z"
xy"
xx"
xw"
xv"
xu"
xt"
xs"
bx r"
bx q"
bx p"
xo"
bx n"
xm"
bx l"
bx k"
xj"
xi"
xh"
xg"
xf"
xe"
xd"
bx c"
bx b"
bx a"
bx `"
bx _"
bx ^"
bx ]"
bx \"
bx ["
xZ"
xY"
xX"
xW"
xV"
xU"
xT"
xS"
xR"
xQ"
xP"
xO"
xN"
xM"
xL"
xK"
xJ"
xI"
xH"
xG"
xF"
xE"
xD"
xC"
xB"
xA"
x@"
x?"
x>"
x="
x<"
x;"
x:"
x9"
bx 8"
bx 7"
bx 6"
bx 5"
x4"
bx 3"
bx 2"
bx 1"
bx 0"
bx /"
bx ."
bx -"
bx ,"
bx +"
x*"
bx )"
bx ("
x'"
x&"
x%"
x$"
x#"
x""
x!"
x~
x}
x|
x{
xz
xy
xx
xw
xv
xu
xt
xs
xr
xq
xp
xo
xn
xm
xl
xk
xj
xi
xh
xg
xf
xe
xd
xc
xb
xa
bx `
bx _
bx ^
bx ]
bx \
bx [
bx Z
bx Y
bx X
b0x W
b0x V
bx U
bx T
xS
xR
0Q
0P
0O
0N
0M
0L
0K
0J
0I
xH
bx G
bx F
bx E
bx D
bx C
0B
xA
x@
x?
x>
x=
x<
x;
x:
bx 9
bx 8
07
x6
bx 5
x4
x3
x2
bx 1
x0
x/
x.
x-
0,
0+
bx *
1)
r0 (
r0 '
r3.3 &
0%
0$
0#
1"
x!
$end
#12500
1*"
0g"
1Q
1P
1O
1N
1M
1L
1K
1J
1I
1B
1,
#20000
17
1%
#25000
0Q
0P
0O
0N
0M
0L
0K
0J
0I
0B
0,
#37500
b0 ^
0h"
0*"
1g"
1Q
1P
1O
1N
1M
1L
1K
1J
1I
1B
1,
#50000
0Q
0P
0O
0N
0M
0L
0K
0J
0I
0B
0,
#62500
0=
0/
0>
16
00
04
02
b10010001101000101000000000000 )"
1c
0r
0y
0""
b110111 _
b11 D
b1000 E
b101 G
b1001 F
b101 ]
b10010001101000101001010110111 1
b10010001101000101001010110111 +"
b0 ,"
b100 ("
b0 ]"
1h"
0i"
1Q
1P
1O
1N
1M
1L
1K
1J
1I
1B
1,
#75000
0Q
0P
0O
0N
0M
0L
0K
0J
0I
0B
0,
#87500
b101 3"
04"
b101 `"
b1000 [
b1000 l"
b11 Z
b11 n"
0;
0o"
0:
0m"
0j"
1i"
1d"
b10010001101000101000000000000 0"
b0 ^"
0!"
0z
0|
0~
0{
0}
0&"
0'"
0a
0b
0d
0e
0f
0g
0h
0i
0j
0k
0l
0m
0n
0o
0p
0q
0s
0t
1u
0w
0x
0#"
0$"
0%"
b1010110111 /"
0v
b110111 \"
0K"
b100 7"
b10010001101000101000000000000 5"
1Q
1P
1O
1N
1M
1L
1K
1J
1I
1B
1,
#100000
0Q
0P
0O
0N
0M
0L
0K
0J
0I
0B
0,
r100 f#
1#
#112500
b0x00x000xx0x000x0x0000000000xx T
b0x00x000xx0x000x0x00000000x000 U
b10010001101000101000000000000 \
0A
0S
0?
03
0@
b101 a"
b11 9
b1000 8
b10010001101000101000000000000 1"
b10010001101000101000000000000 6"
b100 8"
09"
0:"
0;"
0<"
0="
0>"
0?"
0@"
0A"
0B"
0C"
0D"
0E"
0F"
1H"
0I"
0J"
0L"
0N"
0O"
0P"
0Q"
0R"
0S"
0T"
0U"
0V"
0W"
0X"
0Y"
0Z"
b0 _"
1e"
1j"
1Q
1P
1O
1N
1M
1L
1K
1J
1I
1B
1,
#120000
07
0%
#125000
0Q
0P
0O
0N
0M
0L
0K
0J
0I
0B
0,
#137500
0{"
0|"
0}"
0~"
0!#
0"#
0##
0$#
0%#
0&#
0'#
0(#
0)#
0*#
0+#
0,#
b100 ^
0.
b101 b"
0x"
0v"
0t"
b0x00x000xx0x000x0x0000000000xx q"
b0x00x000xx0x000x0x00000000x000 p"
b0 C
b0 ."
b0 k"
1*"
0g"
1f"
0M"
0-
0G"
1Q
1P
1O
1N
1M
1L
1K
1J
1I
1B
1,
#141665
1$
#150000
0Q
0P
0O
0N
0M
0L
0K
0J
0I
0B
0,
#162500
12#
1=
1/
1<
b11111111 )"
b1000 ^
16
12
1R
0c
b10011 _
b11111 D
b1010 E
b0 G
b111 F
b1010 ]
b11 T
b10010001101000101000000001000 `
b1000 U
b1111111101010000010100010011 1
b1111111101010000010100010011 +"
0-#
0.#
0/#
00#
01#
03#
04#
05#
06#
07#
08#
09#
0:#
0;#
0<#
0=#
0>#
0?#
0@#
0A#
0B#
0C#
0D#
0E#
0F#
0G#
0H#
0I#
0J#
0K#
0L#
b1 ,"
b101 X
b10010001101000101000000000000 Y
b0 5
b0 2"
b101 c"
b1000 ("
b100 ]"
0h"
b0x00x000xx0x000x0x0000000000xx -"
b0x00x000xx0x000x0x0000000000xx r"
0u"
0w"
0y"
1Q
1P
1O
1N
1M
1L
1K
1J
1I
1B
1,
#175000
0Q
0P
0O
0N
0M
0L
0K
0J
0I
0B
0,
#187500
1>
b1100 ^
10
14
02
b0 )"
b110011 _
b1010 D
b101 E
b111 G
b0 F
b11100 ]
b101000101111111000110011 1
b101000101111111000110011 +"
b1010 U
b11111 T
b10 ,"
1&"
b0 3"
b1010 `"
b1010 8
b1010 [
b1010 l"
b11111 9
b11111 Z
b11111 n"
1s"
b0 V
b11 q"
b1 W
b1000 p"
1:
1m"
0i"
b100 ^"
b1100 ("
b1000 ]"
0f
0u
b10011 /"
b10011 \"
b10010001101000101000000001000 ["
b1000 7"
b100001001 `
b100000011 0"
b11111111 5"
0H
1Q
1P
1O
1N
1M
1L
1K
1J
1I
1B
1,
#200000
0Q
0P
0O
0N
0M
0L
0K
0J
0I
0B
0,
#212500
b100001001 Y
b100001001 \
0>
b11000 )"
b10000 ^
00
04
12
b10011 _
b11000 D
b11100 E
b1 G
02#
17#
b1100011100001111000010011 1
b1100011100001111000010011 +"
b1010 X
b10010001101000101000000000000 U
b100001001 T
b11 ,"
1%"
b111 3"
b11100 `"
b1010 a"
b10010001101000101000000000000 8
b101 [
b101 l"
b1010 9
b1010 Z
b1010 n"
b100000011 1"
b10010001101000101000000000000 `
b0 5"
b11111111 6"
b1100 7"
b1000 8"
1:"
0H"
b100001001 ["
0&"
0'"
b1110110011 /"
b110011 \"
b10000 ("
b1100 ]"
b1000 0"
b1000 ^"
b100 _"
0j"
1;
1o"
b1010 p"
b1 V
b11111 q"
b11 -"
b11 r"
1Q
1P
1O
1N
1M
1L
1K
1J
1I
1B
1,
#225000
0Q
0P
0O
0N
0M
0L
0K
0J
0I
0B
0,
#237500
1>
b0 Y
b10100 ^
10
14
02
b0 \
b0 )"
b110011 _
b11100 D
b1000 E
b0 G
b1000 ]
07#
1I#
b11000 T
b1110001000000010000110011 1
b1110001000000010000110011 +"
b11100 X
b0 U
b100 ,"
1n
b1 3"
b11100 a"
b1010 b"
b11100 8
b11100 [
b11100 l"
b11000 Z
b11000 n"
b11111 -"
b11111 r"
b100001001 q"
b0 V
b10010001101000101000000000000 p"
0;
0o"
b10 C
b10 ."
b10 k"
b1000 _"
b1100 ^"
b10100 ("
b10000 ]"
0$"
0%"
b10010011 /"
b10011 \"
b10010001101000101000000000000 ["
1;"
0:"
b1100 8"
b10000 7"
b0 W
b0 6"
b11000 `
b100100 0"
b11000 5"
b1000 1"
b11000 9
1Q
1P
1O
1N
1M
1L
1K
1J
1I
1B
1,
#241665
0#
#250000
0Q
0P
0O
0N
0M
0L
0K
0J
0I
0B
0,
