output/pre_synth_sim/testbench.vcd
$date
	Mon Nov 20 23:28:04 2023
$end
$version
	Icarus Verilog
$end
$timescale
	1ps
$end
$scope module testbench $end
$var wire 1 ! trap $end
$var wire 4 " mem_wstrb [3:0] $end
$var wire 32 # mem_wdata [31:0] $end
$var wire 1 $ mem_valid $end
$var wire 1 % mem_instr $end
$var wire 32 & mem_addr [31:0] $end
$var reg 1 ' clk $end
$var reg 32 ( mem_rdata [31:0] $end
$var reg 1 ) mem_ready $end
$var reg 1 * resetn $end
$scope module uut $end
$var wire 1 ' clk $end
$var wire 32 + cpi_rd [31:0] $end
$var wire 1 , cpi_ready $end
$var wire 32 - cpi_rs1 [31:0] $end
$var wire 32 . cpi_rs2 [31:0] $end
$var wire 1 / cpi_wait $end
$var wire 1 0 cpi_wr $end
$var wire 32 1 dbg_mem_addr [31:0] $end
$var wire 1 2 dbg_mem_instr $end
$var wire 32 3 dbg_mem_rdata [31:0] $end
$var wire 1 4 dbg_mem_ready $end
$var wire 1 5 dbg_mem_valid $end
$var wire 32 6 dbg_mem_wdata [31:0] $end
$var wire 4 7 dbg_mem_wstrb [3:0] $end
$var wire 1 8 instr_trap $end
$var wire 32 9 irq [31:0] $end
$var wire 1 : launch_next_insn $end
$var wire 1 ; mem_done $end
$var wire 1 < mem_la_firstword $end
$var wire 1 = mem_la_firstword_xfer $end
$var wire 1 > mem_la_read $end
$var wire 1 ? mem_la_use_prefetched_high_word $end
$var wire 1 @ mem_la_write $end
$var wire 32 A mem_rdata [31:0] $end
$var wire 1 ) mem_ready $end
$var wire 1 B mem_xfer $end
$var wire 1 * resetn $end
$var wire 32 C next_pc [31:0] $end
$var wire 32 D mem_rdata_latched_noshuffle [31:0] $end
$var wire 32 E mem_rdata_latched [31:0] $end
$var wire 32 F mem_la_addr [31:0] $end
$var wire 1 G mem_busy $end
$var wire 1 H is_rdcycle_rdcycleh_rdinstr_rdinstrh $end
$var wire 6 I cpuregs_waddr [5:0] $end
$var wire 32 J cpuregs_rdata2 [31:0] $end
$var wire 32 K cpuregs_rdata1 [31:0] $end
$var wire 6 L cpuregs_raddr2 [5:0] $end
$var wire 6 M cpuregs_raddr1 [5:0] $end
$var reg 32 N alu_add_sub [31:0] $end
$var reg 1 O alu_eq $end
$var reg 1 P alu_lts $end
$var reg 1 Q alu_ltu $end
$var reg 32 R alu_out [31:0] $end
$var reg 1 S alu_out_0 $end
$var reg 1 T alu_out_0_q $end
$var reg 32 U alu_out_q [31:0] $end
$var reg 32 V alu_shl [31:0] $end
$var reg 32 W alu_shr [31:0] $end
$var reg 1 X alu_wait $end
$var reg 1 Y alu_wait_2 $end
$var reg 64 Z cached_ascii_instr [63:0] $end
$var reg 32 [ cached_insn_imm [31:0] $end
$var reg 32 \ cached_insn_opcode [31:0] $end
$var reg 5 ] cached_insn_rd [4:0] $end
$var reg 5 ^ cached_insn_rs1 [4:0] $end
$var reg 5 _ cached_insn_rs2 [4:0] $end
$var reg 1 ` clear_prefetched_high_word $end
$var reg 1 a clear_prefetched_high_word_q $end
$var reg 1 b compressed_instr $end
$var reg 64 c count_cycle [63:0] $end
$var reg 64 d count_instr [63:0] $end
$var reg 32 e cpi_insn [31:0] $end
$var reg 32 f cpi_int_rd [31:0] $end
$var reg 1 g cpi_int_ready $end
$var reg 1 h cpi_int_wr $end
$var reg 1 i cpi_timeout $end
$var reg 1 j cpi_valid $end
$var reg 8 k cpu_state [7:0] $end
$var reg 32 l cpuregs_rs1 [31:0] $end
$var reg 32 m cpuregs_rs2 [31:0] $end
$var reg 32 n cpuregs_wrdata [31:0] $end
$var reg 1 o cpuregs_write $end
$var reg 32 p current_pc [31:0] $end
$var reg 64 q dbg_ascii_instr [63:0] $end
$var reg 128 r dbg_ascii_state [127:0] $end
$var reg 32 s dbg_insn_addr [31:0] $end
$var reg 32 t dbg_insn_imm [31:0] $end
$var reg 32 u dbg_insn_opcode [31:0] $end
$var reg 5 v dbg_insn_rd [4:0] $end
$var reg 5 w dbg_insn_rs1 [4:0] $end
$var reg 5 x dbg_insn_rs2 [4:0] $end
$var reg 1 y dbg_next $end
$var reg 32 z dbg_rs1val [31:0] $end
$var reg 1 { dbg_rs1val_valid $end
$var reg 32 | dbg_rs2val [31:0] $end
$var reg 1 } dbg_rs2val_valid $end
$var reg 1 ~ dbg_valid_insn $end
$var reg 32 !" decoded_imm [31:0] $end
$var reg 32 "" decoded_imm_j [31:0] $end
$var reg 5 #" decoded_rd [4:0] $end
$var reg 5 $" decoded_rs [4:0] $end
$var reg 5 %" decoded_rs1 [4:0] $end
$var reg 5 &" decoded_rs2 [4:0] $end
$var reg 1 '" decoder_pseudo_trigger $end
$var reg 1 (" decoder_pseudo_trigger_q $end
$var reg 1 )" decoder_trigger $end
$var reg 1 *" decoder_trigger_q $end
$var reg 1 +" do_waitirq $end
$var reg 32 ," eoi [31:0] $end
$var reg 1 -" instr_add $end
$var reg 1 ." instr_addi $end
$var reg 1 /" instr_and $end
$var reg 1 0" instr_andi $end
$var reg 1 1" instr_auipc $end
$var reg 1 2" instr_beq $end
$var reg 1 3" instr_bge $end
$var reg 1 4" instr_bgeu $end
$var reg 1 5" instr_blt $end
$var reg 1 6" instr_bltu $end
$var reg 1 7" instr_bne $end
$var reg 1 8" instr_ecall_ebreak $end
$var reg 1 9" instr_fence $end
$var reg 1 :" instr_getq $end
$var reg 1 ;" instr_jal $end
$var reg 1 <" instr_jalr $end
$var reg 1 =" instr_lb $end
$var reg 1 >" instr_lbu $end
$var reg 1 ?" instr_lh $end
$var reg 1 @" instr_lhu $end
$var reg 1 A" instr_lui $end
$var reg 1 B" instr_lw $end
$var reg 1 C" instr_maskirq $end
$var reg 1 D" instr_or $end
$var reg 1 E" instr_ori $end
$var reg 1 F" instr_rdcycle $end
$var reg 1 G" instr_rdcycleh $end
$var reg 1 H" instr_rdinstr $end
$var reg 1 I" instr_rdinstrh $end
$var reg 1 J" instr_retirq $end
$var reg 1 K" instr_sb $end
$var reg 1 L" instr_setq $end
$var reg 1 M" instr_sh $end
$var reg 1 N" instr_sll $end
$var reg 1 O" instr_slli $end
$var reg 1 P" instr_slt $end
$var reg 1 Q" instr_slti $end
$var reg 1 R" instr_sltiu $end
$var reg 1 S" instr_sltu $end
$var reg 1 T" instr_sra $end
$var reg 1 U" instr_srai $end
$var reg 1 V" instr_srl $end
$var reg 1 W" instr_srli $end
$var reg 1 X" instr_sub $end
$var reg 1 Y" instr_sw $end
$var reg 1 Z" instr_timer $end
$var reg 1 [" instr_waitirq $end
$var reg 1 \" instr_xor $end
$var reg 1 ]" instr_xori $end
$var reg 1 ^" irq_active $end
$var reg 1 _" irq_delay $end
$var reg 32 `" irq_mask [31:0] $end
$var reg 32 a" irq_pending [31:0] $end
$var reg 2 b" irq_state [1:0] $end
$var reg 1 c" is_alu_reg_imm $end
$var reg 1 d" is_alu_reg_reg $end
$var reg 1 e" is_beq_bne_blt_bge_bltu_bgeu $end
$var reg 1 f" is_compare $end
$var reg 1 g" is_jalr_addi_slti_sltiu_xori_ori_andi $end
$var reg 1 h" is_lb_lh_lw_lbu_lhu $end
$var reg 1 i" is_lbu_lhu_lw $end
$var reg 1 j" is_lui_auipc_jal $end
$var reg 1 k" is_lui_auipc_jal_jalr_addi_add_sub $end
$var reg 1 l" is_sb_sh_sw $end
$var reg 1 m" is_sll_srl_sra $end
$var reg 1 n" is_slli_srli_srai $end
$var reg 1 o" is_slti_blt_slt $end
$var reg 1 p" is_sltiu_bltu_sltu $end
$var reg 1 q" last_mem_valid $end
$var reg 1 r" latched_branch $end
$var reg 1 s" latched_compr $end
$var reg 1 t" latched_is_lb $end
$var reg 1 u" latched_is_lh $end
$var reg 1 v" latched_is_lu $end
$var reg 5 w" latched_rd [4:0] $end
$var reg 1 x" latched_stalu $end
$var reg 1 y" latched_store $end
$var reg 1 z" latched_trace $end
$var reg 16 {" mem_16bit_buffer [15:0] $end
$var reg 32 |" mem_addr [31:0] $end
$var reg 1 }" mem_do_prefetch $end
$var reg 1 ~" mem_do_rdata $end
$var reg 1 !# mem_do_rinst $end
$var reg 1 "# mem_do_wdata $end
$var reg 1 % mem_instr $end
$var reg 1 ## mem_la_firstword_reg $end
$var reg 1 $# mem_la_secondword $end
$var reg 32 %# mem_la_wdata [31:0] $end
$var reg 4 &# mem_la_wstrb [3:0] $end
$var reg 32 '# mem_rdata_q [31:0] $end
$var reg 32 (# mem_rdata_word [31:0] $end
$var reg 2 )# mem_state [1:0] $end
$var reg 1 $ mem_valid $end
$var reg 32 *# mem_wdata [31:0] $end
$var reg 2 +# mem_wordsize [1:0] $end
$var reg 4 ,# mem_wstrb [3:0] $end
$var reg 64 -# new_ascii_instr [63:0] $end
$var reg 32 .# next_insn_opcode [31:0] $end
$var reg 32 /# next_irq_pending [31:0] $end
$var reg 1 0# prefetched_high_word $end
$var reg 64 1# q_ascii_instr [63:0] $end
$var reg 32 2# q_insn_imm [31:0] $end
$var reg 32 3# q_insn_opcode [31:0] $end
$var reg 5 4# q_insn_rd [4:0] $end
$var reg 5 5# q_insn_rs1 [4:0] $end
$var reg 5 6# q_insn_rs2 [4:0] $end
$var reg 32 7# reg_next_pc [31:0] $end
$var reg 32 8# reg_op1 [31:0] $end
$var reg 32 9# reg_op2 [31:0] $end
$var reg 32 :# reg_out [31:0] $end
$var reg 32 ;# reg_pc [31:0] $end
$var reg 5 <# reg_sh [4:0] $end
$var reg 1 =# set_mem_do_rdata $end
$var reg 1 ># set_mem_do_rinst $end
$var reg 1 ?# set_mem_do_wdata $end
$var reg 32 @# timer [31:0] $end
$var reg 36 A# trace_data [35:0] $end
$var reg 1 B# trace_valid $end
$var reg 1 ! trap $end
$scope begin genblk2 $end
$upscope $end
$scope module cpuregs $end
$var wire 1 ' clk $end
$var wire 6 C# raddr1 [5:0] $end
$var wire 6 D# raddr2 [5:0] $end
$var wire 32 E# rdata1 [31:0] $end
$var wire 32 F# rdata2 [31:0] $end
$var wire 6 G# waddr [5:0] $end
$var wire 32 H# wdata [31:0] $end
$var wire 1 I# wen $end
$upscope $end
$scope task empty_statement $end
$upscope $end
$upscope $end
$upscope $end
$enddefinitions $end
#0
$dumpvars
0I#
bx H#
b0xxxxx G#
bx F#
bx E#
b0xxxxx D#
b0xxxxx C#
0B#
bx A#
b0 @#
0?#
0>#
0=#
bx <#
b0 ;#
bx :#
bx 9#
bx 8#
b0 7#
bx 6#
bx 5#
bx 4#
bx 3#
bx 2#
bx 1#
00#
bx /#
bx .#
b0 -#
bx ,#
bx +#
bx *#
b0 )#
bx (#
bx '#
bx &#
bx %#
0$#
0##
0"#
0!#
0~"
0}"
bx |"
bx {"
0z"
0y"
0x"
bx w"
0v"
0u"
0t"
xs"
0r"
0q"
xp"
xo"
xn"
xm"
xl"
xk"
xj"
xi"
xh"
xg"
0f"
0e"
xd"
xc"
b0 b"
bx a"
b11111111111111111111111111111111 `"
0_"
0^"
0]"
0\"
x["
xZ"
xY"
0X"
xW"
0V"
xU"
0T"
0S"
0R"
0Q"
0P"
xO"
0N"
xM"
xL"
xK"
xJ"
xI"
xH"
xG"
xF"
0E"
0D"
xC"
xB"
xA"
x@"
x?"
x>"
x="
x<"
x;"
x:"
09"
x8"
07"
06"
05"
04"
03"
02"
x1"
00"
0/"
0."
0-"
b0 ,"
0+"
x*"
0)"
x("
0'"
bx &"
bx %"
bx $"
bx #"
bx ""
bx !"
0~
x}
bx |
x{
bx z
xy
bx x
bx w
bx v
bx u
bx t
bx s
b110011001100101011101000110001101101000 r
bx q
bx p
0o
bx n
bx m
bx l
b1000000 k
0j
0i
xh
xg
bx f
bx e
b0 d
b0 c
xb
xa
1`
bx _
bx ^
bx ]
bx \
bx [
bx Z
0Y
0X
bx W
bx V
bx U
xT
xS
bx R
xQ
xP
xO
bx N
b0xxxxx M
b0xxxxx L
bx K
bx J
b0xxxxx I
xH
0G
bx00 F
bx E
bx D
b0 C
0B
bx A
0@
0?
0>
0=
0<
0;
0:
bz 9
x8
bx 7
bx 6
05
x4
bx 3
x2
bx 1
z0
z/
bx .
bx -
z,
bz +
0*
x)
bx (
1'
bx &
x%
0$
bx #
bx "
0!
$end
#5000
0'
#10000
1`
04
0)
0("
0*"
1a
0p"
0o"
0y
bx /#
1'
#15000
0'
#20000
bx /#
1'
#25000
0'
#30000
bx /#
1'
#35000
0'
#40000
bx /#
1'
#45000
0'
#50000
bx /#
1'
#55000
0'
#60000
bx /#
1'
#65000
0'
#70000
bx /#
1'
#75000
0'
#80000
bx /#
1'
#85000
0'
#90000
bx /#
1'
#95000
0'
#100000
bx /#
1'
#105000
0'
#110000
bx /#
1'
#115000
0'
#120000
bx /#
1'
#125000
0'
#130000
bx /#
1'
#135000
0'
#140000
bx /#
1'
#145000
0'
#150000
bx /#
1'
#155000
0'
#160000
bx /#
1'
#165000
0'
#170000
bx /#
1'
#175000
0'
#180000
bx /#
1'
#185000
0'
#190000
bx /#
1'
#195000
0'
#200000
bx /#
1'
#205000
0'
#210000
bx /#
1'
#215000
0'
#220000
bx /#
1'
#225000
0'
#230000
bx /#
1'
#235000
0'
#240000
bx /#
1'
#245000
0'
#250000
bx /#
1'
#255000
0'
#260000
bx /#
1'
#265000
0'
#270000
bx /#
1'
#275000
0'
#280000
bx /#
1'
#285000
0'
#290000
bx /#
1'
#295000
0'
#300000
bx /#
1'
#305000
0'
#310000
bx /#
1'
#315000
0'
#320000
bx /#
1'
#325000
0'
#330000
bx /#
1'
#335000
0'
#340000
bx /#
1'
#345000
0'
#350000
bx /#
1'
#355000
0'
#360000
bx /#
1'
#365000
0'
#370000
bx /#
1'
#375000
0'
#380000
bx /#
1'
#385000
0'
#390000
bx /#
1'
#395000
0'
#400000
bx /#
1'
#405000
0'
#410000
bx /#
1'
#415000
0'
#420000
bx /#
1'
#425000
0'
#430000
bx /#
1'
#435000
0'
#440000
bx /#
1'
#445000
0'
#450000
bx /#
1'
#455000
0'
#460000
bx /#
1'
#465000
0'
#470000
bx /#
1'
#475000
0'
#480000
bx /#
1'
#485000
0'
#490000
bx /#
1'
#495000
0'
#500000
bx /#
1'
#505000
0'
#510000
bx /#
1'
#515000
0'
#520000
bx /#
1'
#525000
0'
#530000
bx /#
1'
#535000
0'
#540000
bx /#
1'
#545000
0'
#550000
bx /#
1'
#555000
0'
#560000
bx /#
1'
#565000
0'
#570000
bx /#
1'
#575000
0'
#580000
bx /#
1'
#585000
0'
#590000
bx /#
1'
#595000
0'
#600000
bx /#
1'
#605000
0'
#610000
bx /#
1'
#615000
0'
#620000
bx /#
1'
#625000
0'
#630000
bx /#
1'
#635000
0'
#640000
bx /#
1'
#645000
0'
#650000
bx /#
1'
#655000
0'
#660000
bx /#
1'
#665000
0'
#670000
bx /#
1'
#675000
0'
#680000
bx /#
1'
#685000
0'
#690000
bx /#
1'
#695000
0'
#700000
bx /#
1'
#705000
0'
#710000
bx /#
1'
#715000
0'
#720000
bx /#
1'
#725000
0'
#730000
bx /#
1'
#735000
0'
#740000
bx /#
1'
#745000
0'
#750000
bx /#
1'
#755000
0'
#760000
bx /#
1'
#765000
0'
#770000
bx /#
1'
#775000
0'
#780000
bx /#
1'
#785000
0'
#790000
bx /#
1'
#795000
0'
#800000
bx /#
1'
#805000
0'
#810000
bx /#
1'
#815000
0'
#820000
bx /#
1'
#825000
0'
#830000
bx /#
1'
#835000
0'
#840000
bx /#
1'
#845000
0'
#850000
bx /#
1'
#855000
0'
#860000
bx /#
1'
#865000
0'
#870000
bx /#
1'
#875000
0'
#880000
bx /#
1'
#885000
0'
#890000
bx /#
1'
#895000
0'
#900000
bx /#
1'
#905000
0'
#910000
bx /#
1'
#915000
0'
#920000
bx /#
1'
#925000
0'
#930000
bx /#
1'
#935000
0'
#940000
bx /#
1'
#945000
0'
#950000
bx /#
1'
#955000
0'
#960000
bx /#
1'
#965000
0'
#970000
bx /#
1'
#975000
0'
#980000
bx /#
1'
#985000
0'
#990000
bx /#
1'
#995000
0'
#1000000
0`
1*
bx /#
1'
#1005000
0'
#1010000
1>
b0 F
b1111 &#
b0 +#
1G
1!#
b1 c
0a
bx p
1'
#1015000
0'
#1020000
0>
b1 )#
12
1%
15
1$
b0 7
b0 "
b0 ,#
b0 1
b0 &
b0 |"
b10 c
bx p
1'
#1025000
0'
#1030000
1;
b111111110000000000000010010011 E
b111111110000000000000010010011 D
1B
b111111110000000000000010010011 (#
b111111110000000000000010010011 3
b111111110000000000000010010011 (
b111111110000000000000010010011 A
14
1)
b11 c
1q"
bx p
1'
#1035000
0'
#1040000
0;
bx00 F
1:
0B
b0 l
b0 )#
05
0$
0q"
b111111110000000000000010010011 .#
b111111110000000000000010010011 '#
0b
b11100 L
b11100 D#
b11100 &"
b0 M
b0 C#
b0 %"
b1 #"
b1111111100 ""
0d"
1c"
0l"
0h"
0["
0J"
0<"
0;"
01"
0A"
0G
0!#
1)"
b100 c
04
0)
bx p
1'
#1045000
0'
#1050000
1>
b100 F
0:
b11011000110010001011111011100100111001100110001 r
b100 C
08
b1100001011001000110010001101001 -#
b1 v
b11100 x
b0 w
b1111111100 t
b111111110000000000000010010011 u
b1100001011001000110010001101001 q
b100000 k
1G
1}"
b1 d
b100 7#
0s"
b1 I
b1 G#
b1 w"
1*"
0)"
b101 c
0}
0{
b1111111100 !"
0m"
1g"
0n"
0Z"
0C"
0L"
0:"
08"
0H
0I"
0H"
0G"
0F"
0U"
0W"
0O"
1."
0Y"
0M"
0K"
0@"
0>"
0B"
0?"
0="
0k"
0j"
b0 s
1~
1y
bx p
1'
#1055000
0'
#1060000
0>
b1100101011110000110010101100011 r
b1111111100 R
b1111111100 %#
b0 W
b0 V
1Q
1P
0O
b1111111100 N
b1 )#
15
1$
b100 1
b100 &
b100 |"
b1 ]
b11100 _
b0 ^
b111111110000000000000010010011 \
b1111111100 [
b1100001011001000110010001101001 Z
0y
b1 4#
b11100 6#
b0 5#
b111111110000000000000010010011 3#
b1111111100 2#
b1100001011001000110010001101001 1#
0i"
1k"
b1000 k
1!#
b1111111100 .
b1111111100 9#
1{
b0 z
b0 -
b0 8#
0*"
b110 c
1'
#1065000
0'
#1070000
1;
b1010000000100011 E
b1010000000100011 D
1I#
1B
b1010000000100011 (#
b110011001100101011101000110001101101000 r
1o
b1111111100 n
b1111111100 H#
b1010000000100011 3
b1010000000100011 (
b1010000000100011 A
14
1)
b1000000 k
1x"
1y"
b1111111100 :#
b111 c
b1111111100 U
1q"
1'
#1075000
0'
#1080000
0;
0I#
b0 F
1:
0B
b0 m
b1111111100 l
b1111111100 K
b1111111100 E#
bx n
bx H#
0o
b0 )#
05
0$
0q"
b1010000000100011 .#
b1010000000100011 '#
b0 L
b0 D#
b0 &"
b1 M
b1 C#
b1 %"
b0 #"
b1010000000000000 ""
0c"
1l"
0G
0!#
0}"
0x"
0y"
b100 ;#
1)"
b1000 c
bx :#
04
0)
bx p
1'
#1085000
0'
#1090000
1>
b1000 F
0:
b111001101110111 q
b11011000110010001011111011100100111001100110001 r
b1000 C
bx R
b111001101110111 -#
b0 v
b0 x
b1 w
b0 t
b1010000000100011 u
b100000 k
1G
1}"
b10 d
b1000 7#
b0 I
b0 G#
b0 w"
1*"
0)"
b1001 c
0{
bx z
b0 !"
0k"
0g"
0."
1Y"
b100 s
1y
bx p
1'
#1095000
0'
#1100000
0>
b111001101110100011011010110010101101101 r
b0 %#
b1111111100 W
b1111111100 V
0Q
0P
b1 )#
15
1$
b1000 1
b1000 &
b1000 |"
b0 ]
b0 _
b1 ^
b1010000000100011 \
b0 [
b111001101110111 Z
0y
b0 4#
b0 6#
b1 5#
b1010000000100011 3#
b0 2#
b111001101110111 1#
1!#
b10 k
1}
b0 |
b0 <#
1{
b1111111100 z
b0 .
b0 9#
b1111111100 -
b1111111100 8#
0*"
b1010 c
bx U
1'
#1105000
0'
#1110000
1;
b1010000100000011 E
b1010000100000011 D
1B
b1010000100000011 (#
b1010000100000011 3
b1010000100000011 (
b1010000100000011 A
14
1)
b1011 c
bx <#
1q"
1'
#1115000
0'
#1120000
0;
1@
b1111111100 F
0B
b0 )#
05
0$
0q"
b1010000100000011 .#
b1010000100000011 '#
b10 #"
0l"
1h"
1"#
1G
0!#
0}"
1)"
b1100 c
04
0)
1?#
1'
#1125000
0'
#1130000
0@
b110110001110111 -#
1*"
0)"
b1101 c
0Y"
1B"
b10 )#
02
0%
15
1$
b0 6
b0 #
b0 *#
b1111 7
b1111 "
b1111 ,#
b1111111100 1
b1111111100 &
b1111111100 |"
0?#
1'
#1135000
0'
#1140000
1;
bx E
bx D
1B
bx (#
1q"
b10 ]
b1010000100000011 \
b110110001110111 Z
1i"
0*"
b1110 c
bx 3
bx (
bx A
14
1)
1'
#1145000
0'
#1150000
0;
0B
1:
b110011001100101011101000110001101101000 r
b0 )#
05
0$
04
0)
0G
0"#
1'"
1)"
b1000000 k
b1111 c
bx .#
bx '#
0q"
1'
#1155000
0'
#1160000
1>
b1100 F
0:
b11011000110010001011111011100100111001100110001 r
b1100 C
b10 v
b1010000100000011 u
b110110001110111 q
b1000 s
1y
b100000 k
1G
1}"
b11 d
b1100 7#
b10 I
b10 G#
b10 w"
b1000 ;#
1("
0'"
1*"
0)"
b10000 c
0}
0{
bx |
bx z
bx p
1'
#1165000
0'
#1170000
0>
b110110001100100011011010110010101101101 r
bx %#
bx W
bx V
xQ
xP
xO
bx N
b1 )#
12
1%
15
1$
b0 7
b0 "
b0 ,#
b1100 1
b1100 &
b1100 |"
1!#
b1 k
1{
b1111111100 z
bx .
bx 9#
b1111111100 -
b1111111100 8#
0("
0*"
b10001 c
b0xxxxxxxxxxxxxxxx \
0y
b10 4#
b1010000100000011 3#
b110110001110111 1#
1'
#1175000
0'
#1180000
1;
b100010000000100010011 E
b100010000000100010011 D
1B
b100010000000100010011 (#
1q"
1y"
b10010 c
b100010000000100010011 3
b100010000000100010011 (
b100010000000100010011 A
14
1)
1'
#1185000
0'
#1190000
0;
1>
0B
b1111111100 F
b1111111100 J
b1111111100 F#
b1111111100 m
bx l
bx K
bx E#
b0 )#
05
0$
04
0)
1~"
1G
0!#
0}"
1v"
1)"
b10011 c
b1 L
b1 D#
b1 &"
b10 M
b10 C#
b10 %"
b10000100000000000 ""
1c"
0h"
b100010000000100010011 .#
b100010000000100010011 '#
0q"
1=#
1'
#1195000
0'
#1200000
0>
b1100001011001000110010001101001 -#
b1 !"
1g"
1."
0B"
1*"
0)"
b10100 c
b1 )#
02
0%
15
1$
b1111111100 1
b1111111100 &
b1111111100 |"
0=#
1'
#1205000
0'
#1210000
1;
b0 E
b0 D
1B
b0 (#
b0 3
b0 (
b0 A
14
1)
0*"
b10101 c
0i"
1k"
b1 _
b10 ^
b100010000000100010011 \
b1 [
b1100001011001000110010001101001 Z
1q"
1'
#1215000
0'
#1220000
0;
1I#
1:
0B
b110011001100101011101000110001101101000 r
1o
b0 n
b0 H#
b0 )#
05
0$
0q"
b0 .#
b0 '#
0G
0~"
b1000000 k
1'"
1)"
b0 :#
b10110 c
04
0)
1'
#1225000
0'
#1230000
1>
0I#
b10000 F
0:
b11011000110010001011111011100100111001100110001 r
b10000 C
bx n
bx H#
0o
b1 x
b10 w
b100010000000100010011 u
b1 t
b1100001011001000110010001101001 q
b0 l
b100000 k
1G
1}"
b100 d
b10000 7#
0v"
0y"
b1100 ;#
1("
0'"
1*"
0)"
b10111 c
0{
bx z
bx :#
b1100 s
1y
b0 K
b0 E#
bx p
1'
#1235000
0'
#1240000
0>
b1100101011110000110010101100011 r
b1 R
b1 %#
b0 W
b0 V
1Q
1P
0O
b1 N
b1 )#
12
1%
15
1$
b10000 1
b10000 &
b10000 |"
b0 \
0y
b1 6#
b10 5#
b100010000000100010011 3#
b1 2#
b1100001011001000110010001101001 1#
b1000 k
1!#
b1 .
b1 9#
1{
b0 z
b0 -
b0 8#
0("
0*"
b11000 c
1'
#1245000
0'
#1250000
1;
b1000001010000000100011 E
b1000001010000000100011 D
1I#
1B
b1000001010000000100011 (#
b110011001100101011101000110001101101000 r
1o
b1 n
b1 H#
b1000001010000000100011 3
b1000001010000000100011 (
b1000001010000000100011 A
14
1)
b1000000 k
1x"
1y"
b1101 :#
b11001 c
b1 U
1q"
1'
#1255000
0'
#1260000
0;
0I#
b1 m
b0 F
1:
0B
b1 J
b1 F#
b1111111100 l
bx n
bx H#
0o
b0 )#
05
0$
b1111111100 K
b1111111100 E#
0q"
b1000001010000000100011 .#
b1000001010000000100011 '#
b10 L
b10 D#
b10 &"
b1 M
b1 C#
b1 %"
b0 #"
b1010000000000010 ""
0c"
1l"
0G
0!#
0}"
0x"
0y"
b10000 ;#
1)"
b11010 c
bx :#
04
0)
bx p
1'
#1265000
0'
#1270000
1>
b10100 F
0:
b111001101110111 q
b11011000110010001011111011100100111001100110001 r
b10100 C
bx R
b111001101110111 -#
b0 v
b10 x
b1 w
b0 t
b1000001010000000100011 u
b100000 k
1G
1}"
b101 d
b10100 7#
b0 I
b0 G#
b0 w"
1*"
0)"
b11011 c
0{
bx z
b0 !"
0k"
0g"
0."
1Y"
b10000 s
1y
bx p
1'
#1275000
0'
#1280000
0>
b111001101110100011011010110010101101101 r
b111111110 W
b11111111000 V
0Q
0P
b1111111101 N
b1 )#
15
1$
b10100 1
b10100 &
b10100 |"
b0 ]
b10 _
b1 ^
b1000001010000000100011 \
b0 [
b111001101110111 Z
0y
b0 4#
b10 6#
b1 5#
b1000001010000000100011 3#
b0 2#
b111001101110111 1#
1!#
b10 k
1}
b1 |
b1 <#
1{
b1111111100 z
b1 .
b1 9#
b1111111100 -
b1111111100 8#
0*"
b11100 c
bx U
1'
#1285000
0'
#1290000
1;
b11111111010111111111000001101111 E
b11111111010111111111000001101111 D
1B
b11111111010111111111000001101111 (#
b11111111010111111111000001101111 3
b11111111010111111111000001101111 (
b11111111010111111111000001101111 A
14
1)
b11101 c
bx <#
1q"
1'
#1295000
0'
#1300000
0;
1@
bx m
b1111111100 F
0B
bx J
bx F#
bx l
bx K
bx E#
b111001101110111 -#
b0 )#
05
0$
0q"
b11111111010111111111000001101111 .#
b11111111010111111111000001101111 '#
b10101 L
b10101 D#
b10101 &"
b11111 M
b11111 C#
b11111 %"
b11111111111111111111111111110100 ""
0l"
1;"
1"#
1G
0!#
0}"
1)"
b11110 c
04
0)
1?#
1'
#1305000
0'
#1310000
0@
b11010100110000101101100 -#
1*"
0)"
b11111 c
b11111111111111111111111111110100 !"
0Y"
0k"
1j"
b10 )#
02
0%
15
1$
b1 6
b1 #
b1 *#
b1111 7
b1111 "
b1111 ,#
b1111111100 1
b1111111100 &
b1111111100 |"
0?#
1'
#1315000
0'
#1320000
1;
b0 E
b0 D
1B
b1111111101 R
b0 (#
1q"
b10101 _
b11111 ^
b11111111010111111111000001101111 \
b11111111111111111111111111110100 [
b11010100110000101101100 Z
1k"
0*"
b100000 c
b0 3
b0 (
b0 A
14
1)
1'
#1325000
0'
#1330000
0;
0B
1:
b110011001100101011101000110001101101000 r
b0 )#
05
0$
04
0)
0G
0"#
1'"
1)"
b1000000 k
b100001 c
b1111111101 U
b0 .#
b0 '#
0q"
1'
#1335000
0'
#1340000
1>
b1000 F
0:
1`
b1000 C
1o
b11000 n
b11000 H#
b10101 x
b11111 w
b11111111010111111111000001101111 u
b11111111111111111111111111110100 t
b11010100110000101101100 q
b10100 s
1y
1r"
1G
1!#
b110 d
b1000 7#
b10100 ;#
1("
0'"
1*"
0)"
b100010 c
0}
0{
bx |
bx z
bx p
1'
#1345000
0'
#1350000
0>
bx n
bx H#
0o
0`
b1 )#
12
1%
15
1$
b0 7
b0 "
b0 ,#
b1000 1
b1000 &
b1000 |"
0r"
b1000 ;#
0("
0*"
b100011 c
1a
b0 \
0y
b10101 6#
b11111 5#
b11111111010111111111000001101111 3#
b11111111111111111111111111110100 2#
b11010100110000101101100 1#
bx p
1'
#1355000
0'
#1360000
1;
b1010000100000011 E
b1010000100000011 D
1B
b1010000100000011 (#
1q"
0a
b100100 c
b1010000100000011 3
b1010000100000011 (
b1010000100000011 A
14
1)
bx p
1'
#1365000
0'
#1370000
0;
0B
b1111111100 F
1:
b0 m
b1111111100 l
b1111111100 K
b1111111100 E#
b0 -#
18
b0 )#
05
0$
04
0)
0G
0!#
1)"
b100101 c
b0 L
b0 D#
b0 &"
b1 M
b1 C#
b1 %"
b10 #"
b1010000000000000 ""
1h"
0;"
b1010000100000011 .#
b1010000100000011 '#
0q"
bx p
1'
#1375000
0'
#1380000
1>
b1100 F
0:
b10 v
b0 x
b1 w
b0 t
b1010000100000011 u
b110110001110111 q
b110110001110111 -#
08
bx R
b11011000110010001011111011100100111001100110001 r
b1100 C
b1000 s
1y
b0 !"
1B"
0k"
0j"
b100000 k
1G
1}"
b111 d
b1100 7#
b10 I
b10 G#
b10 w"
1*"
0)"
b100110 c
bx p
1'
#1385000
0'
#1390000
0>
b110110001100100011011010110010101101101 r
bx %#
bx W
bx V
xQ
xP
xO
bx N
b1 )#
15
1$
b1100 1
b1100 &
b1100 |"
1!#
b1 k
1{
b1111111100 z
bx .
bx 9#
b1111111100 -
b1111111100 8#
0*"
b100111 c
bx U
1i"
b10 ]
b0 _
b1 ^
b1010000100000011 \
b0 [
b110110001110111 Z
0y
b10 4#
b0 6#
b1 5#
b1010000100000011 3#
b0 2#
b110110001110111 1#
1'
#1395000
0'
#1400000
1;
b100010000000100010011 E
b100010000000100010011 D
1B
b100010000000100010011 (#
1q"
1y"
b101000 c
b100010000000100010011 3
b100010000000100010011 (
b100010000000100010011 A
14
1)
1'
#1405000
0'
